{
  "stats": {
    "suites": 4,
    "tests": 11,
    "passes": 11,
    "pending": 0,
    "failures": 0,
    "start": "2024-04-21T08:56:00.430Z",
    "end": "2024-04-21T08:56:05.879Z",
    "duration": 5449,
    "testsRegistered": 11,
    "passPercent": 100,
    "pendingPercent": 0,
    "other": 0,
    "hasOther": false,
    "skipped": 0,
    "hasSkipped": false
  },
  "results": [
    {
      "uuid": "b511cf41-29a1-4e86-b60f-7c480ad25aa2",
      "title": "",
      "fullFile": "",
      "file": "",
      "beforeHooks": [],
      "afterHooks": [],
      "tests": [],
      "suites": [
        {
          "uuid": "1a6d180a-1141-4cfa-bb93-d4e5897eb8a8",
          "title": "Test go rest /POSTS",
          "fullFile": "/Users/mohammadsadabsaqib/Developer/TestProjects/supertest-ts-mocha-api-test/src/test/post.spec.ts",
          "file": "/src/test/post.spec.ts",
          "beforeHooks": [
            {
              "title": "\"before all\" hook: setup user id in \"Test go rest /POSTS\"",
              "fullTitle": "Test go rest /POSTS \"before all\" hook: setup user id in \"Test go rest /POSTS\"",
              "timedOut": false,
              "duration": 767,
              "state": null,
              "speed": null,
              "pass": false,
              "fail": false,
              "pending": false,
              "context": null,
              "code": "",
              "err": {},
              "uuid": "447d0591-f7d6-4013-ac47-a9a19cccc963",
              "parentUUID": "1a6d180a-1141-4cfa-bb93-d4e5897eb8a8",
              "isHook": true,
              "skipped": false
            }
          ],
          "afterHooks": [],
          "tests": [],
          "suites": [
            {
              "uuid": "318f411a-a022-4b31-b05e-83e8d4d0d0e4",
              "title": "positive scenarios",
              "fullFile": "/Users/mohammadsadabsaqib/Developer/TestProjects/supertest-ts-mocha-api-test/src/test/post.spec.ts",
              "file": "/src/test/post.spec.ts",
              "beforeHooks": [],
              "afterHooks": [],
              "tests": [
                {
                  "title": "should validate create posts",
                  "fullTitle": "Test go rest /POSTS positive scenarios should validate create posts",
                  "timedOut": false,
                  "duration": 683,
                  "state": "passed",
                  "speed": "slow",
                  "pass": true,
                  "fail": false,
                  "pending": false,
                  "context": "[\n  \"Request Payload: {\\n    \\\"user_id\\\": 6862075,\\n    \\\"title\\\": \\\"Curatio adicio supplanto thalassinus vaco conduco aestas alveus custodia.\\\",\\n    \\\"body\\\": \\\"Temporibus ara officia adflicto recusandae tamen. Conqueror tego allatus tabula compello dapifer stips amitto nulla cotidie. Maiores arbustum spero terminatio animi sordeo vilicus.\\\"\\n}\",\n  \"Response: {\\n    \\\"code\\\": 201,\\n    \\\"meta\\\": null,\\n    \\\"data\\\": {\\n        \\\"id\\\": 119270,\\n        \\\"user_id\\\": 6862075,\\n        \\\"title\\\": \\\"Curatio adicio supplanto thalassinus vaco conduco aestas alveus custodia.\\\",\\n        \\\"body\\\": \\\"Temporibus ara officia adflicto recusandae tamen. Conqueror tego allatus tabula compello dapifer stips amitto nulla cotidie. Maiores arbustum spero terminatio animi sordeo vilicus.\\\"\\n    }\\n}\"\n]",
                  "code": "",
                  "err": {},
                  "uuid": "0a6a334b-0820-4e3a-8f84-af1751c4dd7a",
                  "parentUUID": "318f411a-a022-4b31-b05e-83e8d4d0d0e4",
                  "isHook": false,
                  "skipped": false
                },
                {
                  "title": "should validate get post by id",
                  "fullTitle": "Test go rest /POSTS positive scenarios should validate get post by id",
                  "timedOut": false,
                  "duration": 289,
                  "state": "passed",
                  "speed": "slow",
                  "pass": true,
                  "fail": false,
                  "pending": false,
                  "context": "\"Response: {\\n    \\\"code\\\": 200,\\n    \\\"meta\\\": null,\\n    \\\"data\\\": {\\n        \\\"id\\\": 119270,\\n        \\\"user_id\\\": 6862075,\\n        \\\"title\\\": \\\"Curatio adicio supplanto thalassinus vaco conduco aestas alveus custodia.\\\",\\n        \\\"body\\\": \\\"Temporibus ara officia adflicto recusandae tamen. Conqueror tego allatus tabula compello dapifer stips amitto nulla cotidie. Maiores arbustum spero terminatio animi sordeo vilicus.\\\"\\n    }\\n}\"",
                  "code": "",
                  "err": {},
                  "uuid": "21d0f8c8-a81a-4fcf-8e67-7a9aa30646fa",
                  "parentUUID": "318f411a-a022-4b31-b05e-83e8d4d0d0e4",
                  "isHook": false,
                  "skipped": false
                }
              ],
              "suites": [],
              "passes": [
                "0a6a334b-0820-4e3a-8f84-af1751c4dd7a",
                "21d0f8c8-a81a-4fcf-8e67-7a9aa30646fa"
              ],
              "failures": [],
              "pending": [],
              "skipped": [],
              "duration": 972,
              "root": false,
              "rootEmpty": false,
              "_timeout": 5000
            },
            {
              "uuid": "612f9bfa-3b66-422e-8cd5-5d5d8a15e583",
              "title": "negative scenarios",
              "fullFile": "/Users/mohammadsadabsaqib/Developer/TestProjects/supertest-ts-mocha-api-test/src/test/post.spec.ts",
              "file": "/src/test/post.spec.ts",
              "beforeHooks": [],
              "afterHooks": [],
              "tests": [
                {
                  "title": "should validate 401 error code when no token is provided",
                  "fullTitle": "Test go rest /POSTS negative scenarios should validate 401 error code when no token is provided",
                  "timedOut": false,
                  "duration": 242,
                  "state": "passed",
                  "speed": "slow",
                  "pass": true,
                  "fail": false,
                  "pending": false,
                  "context": "[\n  \"Request Payload: {\\n    \\\"user_id\\\": 6862075,\\n    \\\"title\\\": \\\"Amet thalassinus sto vulariter abutor avaritia illo collum civitas avaritia.\\\",\\n    \\\"body\\\": \\\"Correptius accusamus careo admitto aveho defero. Terreo capio comminor cognatus agnitio. Curtus sol adipiscor crastinus vivo pax cupiditate pecus corroboro.\\\"\\n}\",\n  \"Response: {\\n    \\\"code\\\": 401,\\n    \\\"meta\\\": null,\\n    \\\"data\\\": {\\n        \\\"message\\\": \\\"Authentication failed\\\"\\n    }\\n}\"\n]",
                  "code": "",
                  "err": {},
                  "uuid": "75aaee0e-0f84-4e0b-a1d9-fd850f1b893d",
                  "parentUUID": "612f9bfa-3b66-422e-8cd5-5d5d8a15e583",
                  "isHook": false,
                  "skipped": false
                },
                {
                  "title": "should validate 401 error code when invalid token is provided",
                  "fullTitle": "Test go rest /POSTS negative scenarios should validate 401 error code when invalid token is provided",
                  "timedOut": false,
                  "duration": 589,
                  "state": "passed",
                  "speed": "slow",
                  "pass": true,
                  "fail": false,
                  "pending": false,
                  "context": "[\n  \"Request Payload: {\\n    \\\"user_id\\\": 6862075,\\n    \\\"title\\\": \\\"Casus audeo voluptatum.\\\",\\n    \\\"body\\\": \\\"Thorax causa patria conatus deficio cibus subvenio tutis depono aggero. Tempus vir adstringo comprehendo perspiciatis video. Tendo via suscipit officiis voveo.\\\"\\n}\",\n  \"Response: {\\n    \\\"code\\\": 401,\\n    \\\"meta\\\": null,\\n    \\\"data\\\": {\\n        \\\"message\\\": \\\"Invalid token\\\"\\n    }\\n}\"\n]",
                  "code": "",
                  "err": {},
                  "uuid": "f675f338-8b30-4e1d-9914-acff13bf529a",
                  "parentUUID": "612f9bfa-3b66-422e-8cd5-5d5d8a15e583",
                  "isHook": false,
                  "skipped": false
                },
                {
                  "title": "should validate 422 error code when invalid payload is provided",
                  "fullTitle": "Test go rest /POSTS negative scenarios should validate 422 error code when invalid payload is provided",
                  "timedOut": false,
                  "duration": 720,
                  "state": "passed",
                  "speed": "slow",
                  "pass": true,
                  "fail": false,
                  "pending": false,
                  "context": "[\n  \"Request Payload: {\\n    \\\"user_id\\\": 6862075,\\n    \\\"title\\\": \\\"Ciminatio vado sumo.\\\"\\n}\",\n  \"Response: {\\n    \\\"code\\\": 422,\\n    \\\"meta\\\": null,\\n    \\\"data\\\": [\\n        {\\n            \\\"field\\\": \\\"body\\\",\\n            \\\"message\\\": \\\"can't be blank\\\"\\n        }\\n    ]\\n}\"\n]",
                  "code": "",
                  "err": {},
                  "uuid": "e0d190ac-07ca-44f0-a3bf-569463802b22",
                  "parentUUID": "612f9bfa-3b66-422e-8cd5-5d5d8a15e583",
                  "isHook": false,
                  "skipped": false
                }
              ],
              "suites": [],
              "passes": [
                "75aaee0e-0f84-4e0b-a1d9-fd850f1b893d",
                "f675f338-8b30-4e1d-9914-acff13bf529a",
                "e0d190ac-07ca-44f0-a3bf-569463802b22"
              ],
              "failures": [],
              "pending": [],
              "skipped": [],
              "duration": 1551,
              "root": false,
              "rootEmpty": false,
              "_timeout": 5000
            }
          ],
          "passes": [],
          "failures": [],
          "pending": [],
          "skipped": [],
          "duration": 0,
          "root": false,
          "rootEmpty": false,
          "_timeout": 5000
        },
        {
          "uuid": "c4c14343-c9e3-4f41-89b9-c2c3a4b9e37b",
          "title": "Test go rest /USERS",
          "fullFile": "/Users/mohammadsadabsaqib/Developer/TestProjects/supertest-ts-mocha-api-test/src/test/user.spec.ts",
          "file": "/src/test/user.spec.ts",
          "beforeHooks": [],
          "afterHooks": [],
          "tests": [
            {
              "title": "should validate create users",
              "fullTitle": "Test go rest /USERS should validate create users",
              "timedOut": false,
              "duration": 410,
              "state": "passed",
              "speed": "slow",
              "pass": true,
              "fail": false,
              "pending": false,
              "context": "[\n  \"Request Payload: {\\n    \\\"email\\\": \\\"Hilda_Casper67@test.com\\\",\\n    \\\"name\\\": \\\"Hope\\\",\\n    \\\"gender\\\": \\\"female\\\",\\n    \\\"status\\\": \\\"active\\\"\\n}\",\n  \"Response: {\\n    \\\"code\\\": 201,\\n    \\\"meta\\\": null,\\n    \\\"data\\\": {\\n        \\\"id\\\": 6862076,\\n        \\\"name\\\": \\\"Hope\\\",\\n        \\\"email\\\": \\\"Hilda_Casper67@test.com\\\",\\n        \\\"gender\\\": \\\"female\\\",\\n        \\\"status\\\": \\\"active\\\"\\n    }\\n}\"\n]",
              "code": "",
              "err": {},
              "uuid": "f1db9c80-1d99-4050-aa62-4dab6742f766",
              "parentUUID": "c4c14343-c9e3-4f41-89b9-c2c3a4b9e37b",
              "isHook": false,
              "skipped": false
            },
            {
              "title": "should validate get users",
              "fullTitle": "Test go rest /USERS should validate get users",
              "timedOut": false,
              "duration": 303,
              "state": "passed",
              "speed": "slow",
              "pass": true,
              "fail": false,
              "pending": false,
              "context": "\"Response: {\\n    \\\"code\\\": 200,\\n    \\\"meta\\\": {\\n        \\\"pagination\\\": {\\n            \\\"total\\\": 2808,\\n            \\\"pages\\\": 281,\\n            \\\"page\\\": 1,\\n            \\\"limit\\\": 10\\n        }\\n    },\\n    \\\"data\\\": [\\n        {\\n            \\\"id\\\": 6862076,\\n            \\\"name\\\": \\\"Hope\\\",\\n            \\\"email\\\": \\\"Hilda_Casper67@test.com\\\",\\n            \\\"gender\\\": \\\"female\\\",\\n            \\\"status\\\": \\\"active\\\"\\n        },\\n        {\\n            \\\"id\\\": 6862075,\\n            \\\"name\\\": \\\"Hyman\\\",\\n            \\\"email\\\": \\\"Delpha.Gottlieb@sample.com\\\",\\n            \\\"gender\\\": \\\"male\\\",\\n            \\\"status\\\": \\\"active\\\"\\n        },\\n        {\\n            \\\"id\\\": 6859502,\\n            \\\"name\\\": \\\"Ekaksh Dwivedi\\\",\\n            \\\"email\\\": \\\"dwivedi_ekaksh@terry.example\\\",\\n            \\\"gender\\\": \\\"male\\\",\\n            \\\"status\\\": \\\"active\\\"\\n        },\\n        {\\n            \\\"id\\\": 6859500,\\n            \\\"name\\\": \\\"Lakshman Jain\\\",\\n            \\\"email\\\": \\\"lakshman_jain@barton.example\\\",\\n            \\\"gender\\\": \\\"male\\\",\\n            \\\"status\\\": \\\"inactive\\\"\\n        },\\n        {\\n            \\\"id\\\": 6859499,\\n            \\\"name\\\": \\\"Udai Embranthiri\\\",\\n            \\\"email\\\": \\\"udai_embranthiri@treutel-morissette.example\\\",\\n            \\\"gender\\\": \\\"female\\\",\\n            \\\"status\\\": \\\"inactive\\\"\\n        },\\n        {\\n            \\\"id\\\": 6859497,\\n            \\\"name\\\": \\\"Atmananda Chaturvedi\\\",\\n            \\\"email\\\": \\\"chaturvedi_atmananda@dare.test\\\",\\n            \\\"gender\\\": \\\"male\\\",\\n            \\\"status\\\": \\\"inactive\\\"\\n        },\\n        {\\n            \\\"id\\\": 6859496,\\n            \\\"name\\\": \\\"Suryakanta Adiga Esq.\\\",\\n            \\\"email\\\": \\\"adiga_suryakanta_esq@hilpert-moen.example\\\",\\n            \\\"gender\\\": \\\"male\\\",\\n            \\\"status\\\": \\\"active\\\"\\n        },\\n        {\\n            \\\"id\\\": 6859495,\\n            \\\"name\\\": \\\"Sunita Ahluwalia Sr.\\\",\\n            \\\"email\\\": \\\"sunita_ahluwalia_sr@brekke.example\\\",\\n            \\\"gender\\\": \\\"female\\\",\\n            \\\"status\\\": \\\"active\\\"\\n        },\\n        {\\n            \\\"id\\\": 6859494,\\n            \\\"name\\\": \\\"Menka Patel\\\",\\n            \\\"email\\\": \\\"patel_menka@romaguera.example\\\",\\n            \\\"gender\\\": \\\"female\\\",\\n            \\\"status\\\": \\\"active\\\"\\n        },\\n        {\\n            \\\"id\\\": 6859490,\\n            \\\"name\\\": \\\"Archan Kaul\\\",\\n            \\\"email\\\": \\\"kaul_archan@lang-schultz.test\\\",\\n            \\\"gender\\\": \\\"female\\\",\\n            \\\"status\\\": \\\"active\\\"\\n        }\\n    ]\\n}\"",
              "code": "",
              "err": {},
              "uuid": "a847eede-4dc6-4482-973b-6729a9fb842c",
              "parentUUID": "c4c14343-c9e3-4f41-89b9-c2c3a4b9e37b",
              "isHook": false,
              "skipped": false
            },
            {
              "title": "should validate get users by id",
              "fullTitle": "Test go rest /USERS should validate get users by id",
              "timedOut": false,
              "duration": 318,
              "state": "passed",
              "speed": "slow",
              "pass": true,
              "fail": false,
              "pending": false,
              "context": "\"Response: {\\n    \\\"code\\\": 200,\\n    \\\"meta\\\": null,\\n    \\\"data\\\": {\\n        \\\"id\\\": 6862076,\\n        \\\"name\\\": \\\"Hope\\\",\\n        \\\"email\\\": \\\"Hilda_Casper67@test.com\\\",\\n        \\\"gender\\\": \\\"female\\\",\\n        \\\"status\\\": \\\"active\\\"\\n    }\\n}\"",
              "code": "",
              "err": {},
              "uuid": "c7afd3dd-9670-453b-8051-44d7d4f912ca",
              "parentUUID": "c4c14343-c9e3-4f41-89b9-c2c3a4b9e37b",
              "isHook": false,
              "skipped": false
            },
            {
              "title": "should validate get users with query parameter",
              "fullTitle": "Test go rest /USERS should validate get users with query parameter",
              "timedOut": false,
              "duration": 306,
              "state": "passed",
              "speed": "slow",
              "pass": true,
              "fail": false,
              "pending": false,
              "context": "\"Response: {\\n    \\\"code\\\": 200,\\n    \\\"meta\\\": {\\n        \\\"pagination\\\": {\\n            \\\"total\\\": 675,\\n            \\\"pages\\\": 68,\\n            \\\"page\\\": 5,\\n            \\\"limit\\\": 10\\n        }\\n    },\\n    \\\"data\\\": [\\n        {\\n            \\\"id\\\": 6849957,\\n            \\\"name\\\": \\\"Deb Menon CPA\\\",\\n            \\\"email\\\": \\\"deb_menon_cpa@daniel.test\\\",\\n            \\\"gender\\\": \\\"male\\\",\\n            \\\"status\\\": \\\"active\\\"\\n        },\\n        {\\n            \\\"id\\\": 6849955,\\n            \\\"name\\\": \\\"The Hon. Mangala Chopra\\\",\\n            \\\"email\\\": \\\"hon_mangala_the_chopra@schumm-okon.test\\\",\\n            \\\"gender\\\": \\\"male\\\",\\n            \\\"status\\\": \\\"active\\\"\\n        },\\n        {\\n            \\\"id\\\": 6849953,\\n            \\\"name\\\": \\\"Dayaananda Joshi\\\",\\n            \\\"email\\\": \\\"dayaananda_joshi@franecki.test\\\",\\n            \\\"gender\\\": \\\"male\\\",\\n            \\\"status\\\": \\\"active\\\"\\n        },\\n        {\\n            \\\"id\\\": 6849952,\\n            \\\"name\\\": \\\"Fr. Aditya Iyer\\\",\\n            \\\"email\\\": \\\"aditya_iyer_fr@kovacek.example\\\",\\n            \\\"gender\\\": \\\"male\\\",\\n            \\\"status\\\": \\\"active\\\"\\n        },\\n        {\\n            \\\"id\\\": 6849950,\\n            \\\"name\\\": \\\"Fr. Aanjaneya Dwivedi\\\",\\n            \\\"email\\\": \\\"dwivedi_aanjaneya_fr@altenwerth.example\\\",\\n            \\\"gender\\\": \\\"male\\\",\\n            \\\"status\\\": \\\"active\\\"\\n        },\\n        {\\n            \\\"id\\\": 6849942,\\n            \\\"name\\\": \\\"Amrit Deshpande\\\",\\n            \\\"email\\\": \\\"amrit_deshpande@ernser.test\\\",\\n            \\\"gender\\\": \\\"male\\\",\\n            \\\"status\\\": \\\"active\\\"\\n        },\\n        {\\n            \\\"id\\\": 6849937,\\n            \\\"name\\\": \\\"Chandran Mahajan\\\",\\n            \\\"email\\\": \\\"chandran_mahajan@boyer.test\\\",\\n            \\\"gender\\\": \\\"male\\\",\\n            \\\"status\\\": \\\"active\\\"\\n        },\\n        {\\n            \\\"id\\\": 6849934,\\n            \\\"name\\\": \\\"Kamlesh Sinha\\\",\\n            \\\"email\\\": \\\"sinha_kamlesh@krajcik.example\\\",\\n            \\\"gender\\\": \\\"male\\\",\\n            \\\"status\\\": \\\"active\\\"\\n        },\\n        {\\n            \\\"id\\\": 6849932,\\n            \\\"name\\\": \\\"Dharani Dwivedi\\\",\\n            \\\"email\\\": \\\"dwivedi_dharani@walter.example\\\",\\n            \\\"gender\\\": \\\"male\\\",\\n            \\\"status\\\": \\\"active\\\"\\n        },\\n        {\\n            \\\"id\\\": 6849928,\\n            \\\"name\\\": \\\"Rep. Nirbhay Somayaji\\\",\\n            \\\"email\\\": \\\"rep_nirbhay_somayaji@weber.example\\\",\\n            \\\"gender\\\": \\\"male\\\",\\n            \\\"status\\\": \\\"active\\\"\\n        }\\n    ]\\n}\"",
              "code": "",
              "err": {},
              "uuid": "8b828c1e-27dc-4601-a9b6-2e785b0e1d65",
              "parentUUID": "c4c14343-c9e3-4f41-89b9-c2c3a4b9e37b",
              "isHook": false,
              "skipped": false
            },
            {
              "title": "should validate update user by id",
              "fullTitle": "Test go rest /USERS should validate update user by id",
              "timedOut": false,
              "duration": 395,
              "state": "passed",
              "speed": "slow",
              "pass": true,
              "fail": false,
              "pending": false,
              "context": "[\n  \"Request Payload: {\\n    \\\"name\\\": \\\"Kenna\\\",\\n    \\\"email\\\": \\\"Emilio.Larkin@yahoo.com\\\"\\n}\",\n  \"Response: {\\n    \\\"code\\\": 200,\\n    \\\"meta\\\": null,\\n    \\\"data\\\": {\\n        \\\"email\\\": \\\"Emilio.Larkin@yahoo.com\\\",\\n        \\\"name\\\": \\\"Kenna\\\",\\n        \\\"id\\\": 6862076,\\n        \\\"gender\\\": \\\"female\\\",\\n        \\\"status\\\": \\\"active\\\"\\n    }\\n}\"\n]",
              "code": "",
              "err": {},
              "uuid": "df2dc40b-027e-4d3e-899b-9c6be5560461",
              "parentUUID": "c4c14343-c9e3-4f41-89b9-c2c3a4b9e37b",
              "isHook": false,
              "skipped": false
            },
            {
              "title": "should validate delete user by id",
              "fullTitle": "Test go rest /USERS should validate delete user by id",
              "timedOut": false,
              "duration": 413,
              "state": "passed",
              "speed": "slow",
              "pass": true,
              "fail": false,
              "pending": false,
              "context": "\"Response: {\\n    \\\"code\\\": 204,\\n    \\\"meta\\\": null,\\n    \\\"data\\\": null\\n}\"",
              "code": "",
              "err": {},
              "uuid": "27839c3b-23c1-47e9-bbb2-64bb357e34a5",
              "parentUUID": "c4c14343-c9e3-4f41-89b9-c2c3a4b9e37b",
              "isHook": false,
              "skipped": false
            }
          ],
          "suites": [],
          "passes": [
            "f1db9c80-1d99-4050-aa62-4dab6742f766",
            "a847eede-4dc6-4482-973b-6729a9fb842c",
            "c7afd3dd-9670-453b-8051-44d7d4f912ca",
            "8b828c1e-27dc-4601-a9b6-2e785b0e1d65",
            "df2dc40b-027e-4d3e-899b-9c6be5560461",
            "27839c3b-23c1-47e9-bbb2-64bb357e34a5"
          ],
          "failures": [],
          "pending": [],
          "skipped": [],
          "duration": 2145,
          "root": false,
          "rootEmpty": false,
          "_timeout": 5000
        }
      ],
      "passes": [],
      "failures": [],
      "pending": [],
      "skipped": [],
      "duration": 0,
      "root": true,
      "rootEmpty": true,
      "_timeout": 5000
    }
  ],
  "meta": {
    "mocha": {
      "version": "9.2.2"
    },
    "mochawesome": {
      "options": {
        "quiet": false,
        "reportFilename": "index",
        "saveHtml": true,
        "saveJson": true,
        "consoleReporter": "spec",
        "useInlineDiffs": false,
        "code": false
      },
      "version": "7.1.3"
    },
    "marge": {
      "options": {
        "reportDir": "report",
        "reportFilename": "index",
        "reportTitle": "API Regression Test Report",
        "charts": "true",
        "code": "false",
        "inline": "true",
        "autoOpen": "false",
        "showPassed": "true",
        "showFailed": "true",
        "showPending": "true",
        "showSkipped": "true",
        "showHooks": "failed"
      },
      "version": "6.2.0"
    }
  }
}